cd /Users/mac/Desktop/Demo 
git init
git checkout -b develop
touch Readme.md
touch vim Readme.md
vim Readme.md
git add .
cd /Users/mac/Desktop/Demo 
git add . 
git commit -m "firt commit"
git remote add origin https://github.com/nivruttikokane/FirstApp.git
git remote -v
git push origin develop
cd /Users/mac/Desktop/Demo 
git add .
git commit -m "first commit"
git remote add origin https://github.com/nivruttikokane/FirstApp.git
git push origin develop
cd /Users/mac/Desktop/Demo 
git add .
git commit -m "first commit"
git push origin develop
wq
cd /Users/mac/Desktop/Demo 
git add .
git commit -m "add first change"
git push origin develop
cd /Users/mac/Desktop/Demo 
git init
git checkout -b second
git add .
git commit -m "second branch"
git remote add origin https://github.com/nivruttikokane/FirstApp.git
git push origin second
cd /Users/mac/Desktop/Demo 
git add .
git add commit -m "change in second branch"
git pull origin develop
git push origin second
cd /Users/mac/Desktop/Demo 
git status
git push origin second
git pull origin develop
wq
cd/Users/mac/Desktop/Demo 
git add .
cd /Users/mac/Desktop/Demo 
git add .
git commit -m "committed"
git push origin second
git push origin develop
