cd /Users/mac/Desktop/Demo 
git init
git checkout -b develop
touch Readme.md
touch vim Readme.md
vim Readme.md
git add .
cd /Users/mac/Desktop/Demo 
git add . 
git commit -m "firt commit"
git remote add origin https://github.com/nivruttikokane/FirstApp.git
git remote -v
git push origin develop
cd /Users/mac/Desktop/Demo 
git add .
git commit -m "first commit"
git remote add origin https://github.com/nivruttikokane/FirstApp.git
git push origin develop
cd /Users/mac/Desktop/Demo 
git add .
git commit -m "first commit"
git push origin develop
wq
