Wed Sep 25 18:57:36 2019 [562] <notice> (0x10c6145c0) main: containermanagerd performing first boot initialization
Wed Sep 25 18:57:36 2019 [562] <notice> (0x10c6145c0) -[MCMMigrationStatus isBuildUpgrade]: Current build version (16G73 / (null)) equal to last version recorded (16G73 / (null)); skipping upgrade
Wed Sep 25 18:57:36 2019 [562] <notice> (0x10c6145c0) main: containermanagerd first boot cleanup complete
Wed Sep 25 19:05:03 2019 [1037] <notice> (0x11b33d5c0) main: containermanagerd performing first boot initialization
Wed Sep 25 19:05:03 2019 [1037] <notice> (0x11b33d5c0) -[MCMMigrationStatus isBuildUpgrade]: Current build version (16G73 / (null)) equal to last version recorded (16G73 / (null)); skipping upgrade
Wed Sep 25 19:05:03 2019 [1037] <notice> (0x11b33d5c0) main: containermanagerd first boot cleanup complete
Wed Sep 25 19:21:54 2019 [648] <notice> (0x10cc3f5c0) main: containermanagerd performing first boot initialization
Wed Sep 25 19:21:54 2019 [648] <notice> (0x10cc3f5c0) -[MCMMigrationStatus isBuildUpgrade]: Current build version (16G73 / (null)) equal to last version recorded (16G73 / (null)); skipping upgrade
Wed Sep 25 19:21:55 2019 [648] <notice> (0x10cc3f5c0) main: containermanagerd first boot cleanup complete
Wed Sep 25 19:33:24 2019 [425] <notice> (0x11081c5c0) main: containermanagerd performing first boot initialization
Wed Sep 25 19:33:24 2019 [425] <notice> (0x11081c5c0) -[MCMMigrationStatus isBuildUpgrade]: Current build version (16G73 / (null)) equal to last version recorded (16G73 / (null)); skipping upgrade
Wed Sep 25 19:33:24 2019 [425] <notice> (0x11081c5c0) main: containermanagerd first boot cleanup complete
Wed Oct  2 00:12:45 2019 [427] <notice> (0x1170c95c0) main: containermanagerd performing first boot initialization
Wed Oct  2 00:12:45 2019 [427] <notice> (0x1170c95c0) -[MCMMigrationStatus isBuildUpgrade]: Current build version (16G73 / (null)) equal to last version recorded (16G73 / (null)); skipping upgrade
Wed Oct  2 00:12:45 2019 [427] <notice> (0x1170c95c0) main: containermanagerd first boot cleanup complete
