--- !logd purge record
type  : Special Periodic Compaction
goal  : 0
time  : 2019-10-02 00:13:12+0530
files :
    - [ Special/0000000000000001.tracev3, 145504, 93520 ]
done  : 2019-10-02 00:13:12+0530

--- !logd uuid purge records
time  : 2019-10-02 00:13:13+0530
uuids :
    - 01D50196-F894-36A4-8A72-9225073BF7C5
    - 0292B46D-0AD0-3D27-84C0-D5C8ABFC2ABC
    - 02C22A55-AD4F-35D3-8003-FB914745933E
    - 06119013-7616-37B9-A7A3-B53A12253837
    - 063E52A3-9897-30D7-8659-1E6F83FD22D7
    - 08BDBB18-4E14-3E61-8709-085E84ABB6AC
    - 12455DAE-48E7-39CA-98A6-966FA0FAEED8
    - 13B7EF3F-C30C-38DE-ADD4-912A1AA4C03C
    - 13F06A4E-10F3-3575-9359-85DBC17E75DA
    - 1E8DC35C-060F-3564-9046-4F6895B84FF6
    - 261A5737-6626-38BB-BAE4-6553EFB41ECC
    - 27B03E6F-25FA-3E19-B49D-A8E78508CEDF
    - 28113491-4BBA-3DDF-9E99-CB54CF391BAB
    - 29B90650-3CFA-3EEB-8CE1-3D3C2DB544F4
    - 29E1A7BC-0457-317D-BCE2-F59C0A3C6164
    - 305E7E77-571F-353B-965B-B78243BAFF23
    - 38AAB1B5-D1EB-3605-A843-94B192E78250
    - 3B5EE072-574E-373C-9BAC-D22D100C91FB
    - 3C2D5A10-47E0-3D3D-AD74-29D0F95F43FC
    - 3F9AD89D-8410-37CF-B2F0-D3A45AFF9845
    - 403C92AD-451F-3761-A991-93194D56BA10
    - 460604FC-3282-395D-BDDC-5577BC1D2B30
    - 46C40A99-ACE4-30D7-93FD-0D1D311893E6
    - 4A9FD057-F954-3E17-950C-F31629147700
    - 4B53D711-C100-3337-AF7B-EB80C4D5FDBF
    - 4C59C0F3-0B20-3E15-A738-C9D1F7142EFE
    - 4E7201EF-E7A9-3066-BD9D-91F61C1AC522
    - 4F1CC76B-C0CC-3010-9952-70E3B65E9489
    - 50560D63-9244-3639-8308-8025278DC0E0
    - 50F325FA-8176-3B94-BAA9-25AAF2AF3818
    - 51543623-B9CC-36E6-A050-AE85034D97A7
    - 51573A26-BADC-3F28-AC03-C5691236F8A3
    - 52B60A46-089B-3AC8-9915-34170D165B01
    - 5736737C-AE19-3F2E-880A-4F7404F3A9E5
    - 57C8C5CD-DFE5-3905-8B24-630667DCF6A5
    - 59975671-C985-382E-B1BE-2C7283114B98
    - 59A7583A-CD90-3165-95E8-2139D0FFEA35
    - 59C5C935-98DA-382F-9AAB-B49E184D934A
    - 5BBB353E-E3C1-3115-BD97-DB63E2F27A86
    - 5CDB089D-51B9-338B-8894-FF9C3A48AFB3
    - 6277072C-A4B7-3951-AF2F-56403CC47949
    - 655D9BD2-638C-370B-A0CA-46021FEDC4AA
    - 678BA060-6928-3A4E-B054-B77F27BD2A36
    - 691861F2-9832-3EA9-BB90-AC4CFDC3E264
    - 6B5D174D-3160-383C-A925-27DF158A599E
    - 6B7EDE2E-A0C1-3E8E-9C6D-D3FEC823EF17
    - 6D15A940-B466-3008-B93F-A406AD16244C
    - 6DD58EF2-5D7D-3116-98C2-7E5F607A7281
    - 6F9F952C-4582-3528-8B09-07A99CD37E23
    - 70549A00-7DE7-30D3-8359-47BE3A53542C
    - 714CBC6C-72AF-36AC-B21B-8BC39CB4EFC8
    - 71B7605D-2094-35A6-B8AB-314054A6318A
    - 71F70441-2A40-3366-90E8-B7A95B979C08
    - 74AFE524-7EA2-3EF3-AE4A-94E3D7D6A1F9
    - 75B55C35-9FB8-3E9E-8EB9-96131CECB4F6
    - 75DE4991-5580-351C-AF33-91A1CCB1D10F
    - 77998BEF-29E6-3B65-A653-1239AD9CCF3B
    - 77C5E028-0F2C-3737-B822-31EF6E4DBA94
    - 79508112-34E5-352D-B696-3B205F4C7CAA
    - 7DD2C561-2E16-320C-AD8F-1C2055A3680E
    - 7F371227-7E11-380B-8EC9-E075F906A6F2
    - 80CEE4BE-0AFF-3781-A834-1BE882EB9220
    - 80FD0D4F-C357-3C8A-B6E7-8FA999AD190C
    - 82A33378-55DC-33AD-B7D5-F4D4932365F8
    - 84EB87AA-F68C-398D-A478-D0A5703ACFA2
    - 85E85083-0E4E-3A36-95DD-928C013EC0C4
    - 85F80B30-DF66-3C86-99D3-228915ACE424
    - 8A998A16-693A-3DB1-8215-4A41FDB218B3
    - 8AD3C11A-3B78-3C4E-84D4-6F0B56D6B102
    - 8EBEA50B-5901-3352-8728-38A55E96052F
    - 95DDFDE0-2FDA-3387-A9D3-4095A9D84E34
    - 963DFF74-6229-38A4-BE5B-77934619299D
    - 96C9A9BF-D410-32D8-96C2-81901CECD7A8
    - 96F19612-8162-3B4F-8D09-F50E96E8A401
    - 975B7445-9EDE-3524-91F4-1AF183E546E8
    - 98D5F6D5-B5B6-3EF3-92FD-241454105DD5
    - 9C427A7B-21D9-3071-8919-4338684C38BB
    - 9DD2A36E-4047-35A9-B39E-811D1DF3C18C
    - 9E2950E6-F5FD-38CD-BB31-645D562BAD4B
    - 9F2CEE6F-26AA-3125-9996-6E39AEEFDDDF
    - A09CEBAC-C2B9-3714-A16D-55DBAF50516C
    - A231D7EA-EE0F-3220-9AE9-EE16EFE8AE84
    - A2DC6CC4-C0AC-3562-AC24-BC9632E684C6
    - A4D0AAD8-4D2E-3973-A714-C7F42234AB2D
    - A6966CEC-4F6B-3664-A518-8AF123BD05BC
    - A8F787A2-192A-399D-BEA6-6344749B8AF7
    - A9CED9DF-CA91-3675-8018-7ECDE13DD6E0
    - ADFD7F6B-F3C1-3C23-91C3-1C3D5A813406
    - B08A4A0E-421A-3E9E-A710-D1244148BB53
    - B392B208-920D-376C-BC7F-0C94FF21A82B
    - B4AC59CF-5862-3E4B-93E0-97B37D91DD43
    - B55CFEB3-5DBF-37FA-8F76-1675E7E55DAF
    - B5DAC493-05D2-3C9B-B4AC-84274C0CEE6B
    - B9ED1EE8-00B0-3704-AFE3-6DC408209F4E
    - BB321911-B22F-3DFB-9242-7CA16CA85BD3
    - C1EED19C-E4A8-3B40-AF53-E92D8D56B0DC
    - C27E7E2F-D475-3586-95E7-BAC9E49CBCAF
    - C3127E9B-EDCF-32F4-A43C-BF2E2D6176AA
    - C7C1279F-81BC-3101-83E3-F55BCF61DE02
    - C9032C5D-84F0-3BEA-AFA8-CD8A6460E335
    - CC5106A4-F495-3E5D-B686-D0C0C03F0309
    - CDDA0D63-9610-3FB4-A05D-469BA8D9E237
    - D136CA3C-4FDB-3A55-94E0-74BFDF90F192
    - D26A97D9-932A-358E-9BA2-A72FCDEB3F39
    - D2F3ADFD-D9F0-34D0-9715-61F29C1149C2
    - D4D61995-D0F9-3C33-BABB-19ACB25DA611
    - D89BAEF6-90B9-3BE2-B92E-4E4E6177F4BA
    - D979B727-A353-3827-88F9-A451335DF1A1
    - D97E8D05-20E2-3D26-A0DE-BBDFCA0F9400
    - DA5C43BD-80E4-382E-A1D6-E61C72577D4C
    - DBAB0079-A310-3B68-B4B9-07C0595A8A01
    - DBACCF32-BE58-3453-BC99-D95021A08D10
    - E13E4DA1-3F7B-39F2-B1D4-BC07F7E67EB6
    - E1529C7B-01D5-3C14-9CB2-6AAB42BE20B8
    - E394FAD5-663C-31FE-924D-3360E1A4DF72
    - E3F3E33A-9121-3DAD-B0A2-CC0F921FA03F
    - E56FE4DC-230E-3F43-A6D8-7AB3C3DA6E4D
    - E5E697DA-1601-3915-A0B2-D3C20B098D00
    - E7DB8B26-C5EF-3784-8A31-C1FF87CF96DD
    - EB09047A-D425-316A-BA87-31F6648DEC70
    - EB1D27FA-FC24-30B3-BBCD-7835A7022A66
    - EB481C29-051F-36DD-8F15-E98D584598CE
    - EC74231B-E3DE-390A-878F-AEF6E260F301
    - EEC02622-2538-3994-A1AD-A9005815FE56
    - EF5F9BE3-7DFB-36C2-82D6-E8F9511E6555
    - EF7BDE07-F23C-35FB-B7D3-B6B9A4994BF4
    - F07341C5-E945-3A14-B26B-77EC308C807A
    - F15180E4-E5A2-3044-B799-F66E71D3ECC3
    - F699C2F4-0782-3F74-92F2-7B42C4AC4AF6
    - F8891CC6-0E0A-35D1-8422-B5A0E260E49E
    - FAFEB44C-A1A5-3673-A585-18657DE13E8F
    - FBCC4B1A-ED4F-3A3B-A654-17A9CA2AEF5D
    - FC6EB422-EFEF-3609-8420-1C4FA1FC2D64
    - FE927AB7-81B2-344C-BB7D-0E05233EA9C2
    - FFFD176C-9423-3A88-818C-53258EE83A30
files_in_use: 859
files_locked: 138
files_recent: 10

